{
  "images" : [
    {
      "idiom" : "universal",
      "filename" : "kisspng-black-and-white-square-area-angle-paper-shadow-projection-angle-5a718c54e32ae6.0479761815173909329305.png",
      "scale" : "1x"
    },
    {
      "idiom" : "universal",
      "scale" : "2x"
    },
    {
      "idiom" : "universal",
      "scale" : "3x"
    }
  ],
  "info" : {
    "version" : 1,
    "author" : "xcode"
  }
}